Payment Date,Invoice Number,Check no.,Invoice  Amount,Amount Paid,Payer Name,Payment Type,Claim,Notes
8/25/2021,INVC-426,200,423,400,American Family,,Bear1000,
8/25/2021,INVC-436,201,500,500,American Family,,Bear1000,
8/25/2021,INVC-456,202,185,175,American Family,,1021084842,
8/25/2021,INVC-461,202,20,15,American Family,,2015902,
8/25/2021, IA74,9641,475,475,,,001-451-8651630,
8/25/2021,372919,798941,1300,1000,Citizens Property Insurance,,001-00-252532,
