Payment Date,Invoice Number,Check no.,Invoice  Amount,Amount Paid,Payer Name,Payment Type,Claim,Notes
8/25/2021,IA50,1045,$825.00 ,825,Armed Forces Insurance,,S-79414520,
8/25/2021,INVC-349,4560,150,150,NATIONAL FLOOD SERVICES,,AC019,
8/25/2021, IA74,9641,475,475,,,001-451-8651630,
8/25/2021,372919,798941,1300,1000,Citizens Property Insurance,,001-00-252532,
8/26/2021,INVC-456,8964,185,175,American Family,,01021084842,
