 Application Number / Claim #,Property Address,City,State,Zip,First Name,Last Name,Email,Phone,Company,LOB,Severity Level,Policy #,Date of Loss
HP-1280,5667 NC HWY 210E,Harrells,NC,28444,Colman,Cain,email@gmail.com,(910) 385-4426,IEM-NC,Personal-CAT-Irma,Level-1,APP-03132,10/6/2017
HP-1281,5667 NC HWY 210E,Harrells,NC,28444,Colman,Cain,email@gmail.com,(910) 385-4426,IEM-NC,Personal-CAT-Irma,Level-1,APP-03132,10/6/2017
